ICC: cross-run (split-half), ub55, cross-task projection onto hilo axis
…
sum_stats_indiv <- d_w %>%
  
  group_by(task, parcel) %>%
  summarize(
    r = cor(run1, run2),
    rho = cor(run1, run2, method = "spearman")
  )

## `summarise()` has grouped output by 'task'. You can override using the `.groups` argument.

sum_stats_indiv %>% arrange(-r)

## # A tibble: 28 x 4
## # Groups:   task [4]
##    task   parcel          r    rho
##    <fct>  <fct>       <dbl>  <dbl>
##  1 Axcpt  Cont        0.498 0.456 
##  2 Stroop Cont        0.473 0.427 
##  3 Cuedts SomMot      0.400 0.325 
##  4 Stroop SalVentAttn 0.310 0.324 
##  5 Cuedts Vis         0.279 0.290 
##  6 Cuedts SalVentAttn 0.235 0.164 
##  7 Stroop Vis         0.219 0.210 
##  8 Stern  Limbic      0.160 0.250 
##  9 Stroop DorsAttn    0.153 0.134 
## 10 Cuedts DorsAttn    0.150 0.0729
## # ... with 18 more rows
…
